[
    {
        "email": "demo@demo.com",
        "login": "demo",
        "password": "demo"
    },
    {
        "email": "test@test.com",
        "login": "test",
        "password": "test"
    },
    {
        "email": "happy@happy.com",
        "login": "happy",
        "password": "happy"
    }
]